INFO 127.0.0.1 - - [15/Feb/2021 20:20:10] "[35m[1mGET /categoria_socio/3 HTTP/1.1[0m" 500 -
INFO 127.0.0.1 - - [15/Feb/2021 20:20:56] "[37mGET /socios/ HTTP/1.1[0m" 200 -
INFO 127.0.0.1 - - [15/Feb/2021 20:26:50] "[37mGET /socios/ HTTP/1.1[0m" 200 -
INFO 127.0.0.1 - - [15/Feb/2021 20:26:51] "[37mGET /socios/3 HTTP/1.1[0m" 200 -
INFO 127.0.0.1 - - [15/Feb/2021 20:26:53] "[33mGET /disciplinas_socio/3 HTTP/1.1[0m" 404 -
INFO 127.0.0.1 - - [15/Feb/2021 20:26:55] "[37mGET /disciplinas/ HTTP/1.1[0m" 200 -
INFO 127.0.0.1 - - [15/Feb/2021 20:26:55] "[37mGET /socios/ HTTP/1.1[0m" 200 -
ERROR Exception on /disciplina_socio/3 [GET]
Traceback (most recent call last):
  File "C:\Users\Susa\AppData\Local\Programs\Python\Python39\lib\site-packages\flask\app.py", line 1950, in full_dispatch_request
    rv = self.dispatch_request()
  File "C:\Users\Susa\AppData\Local\Programs\Python\Python39\lib\site-packages\flask\app.py", line 1936, in dispatch_request
    return self.view_functions[rule.endpoint](**req.view_args)
  File "C:\Users\Susa\AppData\Local\Programs\Python\Python39\lib\site-packages\flask_restx\api.py", line 375, in wrapper
    resp = resource(*args, **kwargs)
  File "C:\Users\Susa\AppData\Local\Programs\Python\Python39\lib\site-packages\flask\views.py", line 89, in view
    return self.dispatch_request(*args, **kwargs)
  File "C:\Users\Susa\AppData\Local\Programs\Python\Python39\lib\site-packages\flask_restx\resource.py", line 44, in dispatch_request
    resp = meth(*args, **kwargs)
  File "C:\Users\Susa\AppData\Local\Programs\Python\Python39\lib\site-packages\flask_restx\marshalling.py", line 248, in wrapper
    resp = f(*args, **kwargs)
  File "c:\Users\Susa\Desktop\Nueva carpeta\TP FINAL\backend\api\disciplina_socio_api.py", line 35, in get
    return repo.get(id)
  File "c:\Users\Susa\Desktop\Nueva carpeta\TP FINAL\backend\infraestructura\disciplinas_socios_repo_sql.py", line 11, in get
    return db.session.query.from_statement(("select * from (select d.nombre,ds.fecha_inscripcion,d.importe,s.nro from socios s join disciplinas_socios ds on s.nro=ds.socio join disciplinas d on d.id=ds.id) as r where nro=IDSOCIO")).params(IDSOCIO=id).all()
AttributeError: 'function' object has no attribute 'from_statement'
INFO 127.0.0.1 - - [15/Feb/2021 20:26:55] "[35m[1mGET /disciplina_socio/3 HTTP/1.1[0m" 500 -
INFO 127.0.0.1 - - [15/Feb/2021 20:27:00] "[37mGET /disciplinas/2 HTTP/1.1[0m" 200 -
INFO 127.0.0.1 - - [15/Feb/2021 20:27:00] "[37mGET /disciplinas/ HTTP/1.1[0m" 200 -
INFO 127.0.0.1 - - [15/Feb/2021 20:27:07] "[37mOPTIONS /disciplina_socio/ HTTP/1.1[0m" 200 -
INFO 127.0.0.1 - - [15/Feb/2021 20:27:07] "[37mPOST /disciplina_socio/ HTTP/1.1[0m" 201 -
INFO 127.0.0.1 - - [15/Feb/2021 20:29:33] "[33mGET /disciplinas_socio/3 HTTP/1.1[0m" 404 -
INFO 127.0.0.1 - - [15/Feb/2021 20:29:36] "[37mGET /socios/3 HTTP/1.1[0m" 200 -
INFO 127.0.0.1 - - [15/Feb/2021 20:29:37] "[37mGET /categorias/ HTTP/1.1[0m" 200 -
ERROR Exception on /categoria_socio/3 [GET]
Traceback (most recent call last):
  File "C:\Users\Susa\AppData\Local\Programs\Python\Python39\lib\site-packages\flask\app.py", line 1950, in full_dispatch_request
    rv = self.dispatch_request()
  File "C:\Users\Susa\AppData\Local\Programs\Python\Python39\lib\site-packages\flask\app.py", line 1936, in dispatch_request
    return self.view_functions[rule.endpoint](**req.view_args)
  File "C:\Users\Susa\AppData\Local\Programs\Python\Python39\lib\site-packages\flask_restx\api.py", line 375, in wrapper
    resp = resource(*args, **kwargs)
  File "C:\Users\Susa\AppData\Local\Programs\Python\Python39\lib\site-packages\flask\views.py", line 89, in view
    return self.dispatch_request(*args, **kwargs)
  File "C:\Users\Susa\AppData\Local\Programs\Python\Python39\lib\site-packages\flask_restx\resource.py", line 44, in dispatch_request
    resp = meth(*args, **kwargs)
  File "C:\Users\Susa\AppData\Local\Programs\Python\Python39\lib\site-packages\flask_restx\marshalling.py", line 248, in wrapper
    resp = f(*args, **kwargs)
  File "c:\Users\Susa\Desktop\Nueva carpeta\TP FINAL\backend\api\categoria_socio_api.py", line 35, in get
    return repo.get_catSocio(socio)
  File "c:\Users\Susa\Desktop\Nueva carpeta\TP FINAL\backend\infraestructura\categorias_socios_repo_sql.py", line 14, in get_catSocio
    return db.session.query.from_statement(("select * from categorias_socios where socio =:socio")).params(socio=socio).all()
AttributeError: 'function' object has no attribute 'from_statement'
INFO 127.0.0.1 - - [15/Feb/2021 20:29:37] "[35m[1mGET /categoria_socio/3 HTTP/1.1[0m" 500 -
INFO 127.0.0.1 - - [15/Feb/2021 20:29:40] "[37mGET /categorias/1 HTTP/1.1[0m" 200 -
INFO 127.0.0.1 - - [15/Feb/2021 20:29:41] "[37mGET /categorias/ HTTP/1.1[0m" 200 -
INFO 127.0.0.1 - - [15/Feb/2021 20:29:50] "[37mOPTIONS /categoria_socio/ HTTP/1.1[0m" 200 -
INFO 127.0.0.1 - - [15/Feb/2021 20:29:50] "[31m[1mPOST /categoria_socio/ HTTP/1.1[0m" 400 -
INFO 127.0.0.1 - - [15/Feb/2021 20:30:01] "[37mOPTIONS /categoria_socio/ HTTP/1.1[0m" 200 -
INFO 127.0.0.1 - - [15/Feb/2021 20:30:01] "[31m[1mPOST /categoria_socio/ HTTP/1.1[0m" 400 -
INFO 127.0.0.1 - - [15/Feb/2021 23:13:10] "[37mGET /socios/ HTTP/1.1[0m" 200 -
INFO 127.0.0.1 - - [15/Feb/2021 23:13:32] "[37mGET /socios/ HTTP/1.1[0m" 200 -
INFO 127.0.0.1 - - [15/Feb/2021 23:13:38] "[37mGET /socios/1 HTTP/1.1[0m" 200 -
INFO 127.0.0.1 - - [15/Feb/2021 23:13:41] "[37mGET /socios/1 HTTP/1.1[0m" 200 -
INFO 127.0.0.1 - - [15/Feb/2021 23:13:55] "[37mGET /categorias/ HTTP/1.1[0m" 200 -
ERROR Exception on /categoria_socio/1 [GET]
Traceback (most recent call last):
  File "C:\Users\Susa\AppData\Local\Programs\Python\Python39\lib\site-packages\flask\app.py", line 1950, in full_dispatch_request
    rv = self.dispatch_request()
  File "C:\Users\Susa\AppData\Local\Programs\Python\Python39\lib\site-packages\flask\app.py", line 1936, in dispatch_request
    return self.view_functions[rule.endpoint](**req.view_args)
  File "C:\Users\Susa\AppData\Local\Programs\Python\Python39\lib\site-packages\flask_restx\api.py", line 375, in wrapper
    resp = resource(*args, **kwargs)
  File "C:\Users\Susa\AppData\Local\Programs\Python\Python39\lib\site-packages\flask\views.py", line 89, in view
    return self.dispatch_request(*args, **kwargs)
  File "C:\Users\Susa\AppData\Local\Programs\Python\Python39\lib\site-packages\flask_restx\resource.py", line 44, in dispatch_request
    resp = meth(*args, **kwargs)
  File "C:\Users\Susa\AppData\Local\Programs\Python\Python39\lib\site-packages\flask_restx\marshalling.py", line 248, in wrapper
    resp = f(*args, **kwargs)
  File "c:\Users\Susa\Desktop\Nueva carpeta\TP FINAL\backend\api\categoria_socio_api.py", line 35, in get
    return repo.get_catSocio(socio)
  File "c:\Users\Susa\Desktop\Nueva carpeta\TP FINAL\backend\infraestructura\categorias_socios_repo_sql.py", line 14, in get_catSocio
    return db.session.query.from_statement(("select * from categorias_socios where socio =:socio")).params(socio=socio).all()
AttributeError: 'function' object has no attribute 'from_statement'
INFO 127.0.0.1 - - [15/Feb/2021 23:13:55] "[35m[1mGET /categoria_socio/1 HTTP/1.1[0m" 500 -
INFO 127.0.0.1 - - [15/Feb/2021 23:14:46] "[37mGET /categorias/1 HTTP/1.1[0m" 200 -
INFO 127.0.0.1 - - [15/Feb/2021 23:14:48] "[37mGET /categorias/ HTTP/1.1[0m" 200 -
INFO 127.0.0.1 - - [15/Feb/2021 23:15:12] "[37mOPTIONS /categoria_socio/ HTTP/1.1[0m" 200 -
INFO 127.0.0.1 - - [15/Feb/2021 23:15:12] "[31m[1mPOST /categoria_socio/ HTTP/1.1[0m" 400 -
INFO 127.0.0.1 - - [15/Feb/2021 23:15:27] "[37mOPTIONS /categoria_socio/1 HTTP/1.1[0m" 200 -
INFO 127.0.0.1 - - [15/Feb/2021 23:15:27] "[31m[1mPUT /categoria_socio/1 HTTP/1.1[0m" 400 -
INFO 127.0.0.1 - - [15/Feb/2021 23:16:11] "[37mGET /socios/1 HTTP/1.1[0m" 200 -
INFO 127.0.0.1 - - [15/Feb/2021 23:16:12] "[33mGET /disciplinas_socio/1 HTTP/1.1[0m" 404 -
INFO 127.0.0.1 - - [15/Feb/2021 23:16:18] "[37mGET /disciplinas/ HTTP/1.1[0m" 200 -
INFO 127.0.0.1 - - [15/Feb/2021 23:16:18] "[37mGET /socios/ HTTP/1.1[0m" 200 -
ERROR Exception on /disciplina_socio/1 [GET]
Traceback (most recent call last):
  File "C:\Users\Susa\AppData\Local\Programs\Python\Python39\lib\site-packages\flask\app.py", line 1950, in full_dispatch_request
    rv = self.dispatch_request()
  File "C:\Users\Susa\AppData\Local\Programs\Python\Python39\lib\site-packages\flask\app.py", line 1936, in dispatch_request
    return self.view_functions[rule.endpoint](**req.view_args)
  File "C:\Users\Susa\AppData\Local\Programs\Python\Python39\lib\site-packages\flask_restx\api.py", line 375, in wrapper
    resp = resource(*args, **kwargs)
  File "C:\Users\Susa\AppData\Local\Programs\Python\Python39\lib\site-packages\flask\views.py", line 89, in view
    return self.dispatch_request(*args, **kwargs)
  File "C:\Users\Susa\AppData\Local\Programs\Python\Python39\lib\site-packages\flask_restx\resource.py", line 44, in dispatch_request
    resp = meth(*args, **kwargs)
  File "C:\Users\Susa\AppData\Local\Programs\Python\Python39\lib\site-packages\flask_restx\marshalling.py", line 248, in wrapper
    resp = f(*args, **kwargs)
  File "c:\Users\Susa\Desktop\Nueva carpeta\TP FINAL\backend\api\disciplina_socio_api.py", line 35, in get
    return repo.get(id)
  File "c:\Users\Susa\Desktop\Nueva carpeta\TP FINAL\backend\infraestructura\disciplinas_socios_repo_sql.py", line 11, in get
    return db.session.query.from_statement(("select * from (select d.nombre,ds.fecha_inscripcion,d.importe,s.nro from socios s join disciplinas_socios ds on s.nro=ds.socio join disciplinas d on d.id=ds.id) as r where nro=IDSOCIO")).params(IDSOCIO=id).all()
AttributeError: 'function' object has no attribute 'from_statement'
INFO 127.0.0.1 - - [15/Feb/2021 23:16:18] "[35m[1mGET /disciplina_socio/1 HTTP/1.1[0m" 500 -
