INFO 127.0.0.1 - - [15/Feb/2021 23:20:27] "[33mGET /disciplinas_socio/1 HTTP/1.1[0m" 404 -
INFO 127.0.0.1 - - [15/Feb/2021 23:20:31] "[37mGET /socios/1 HTTP/1.1[0m" 200 -
INFO 127.0.0.1 - - [15/Feb/2021 23:21:01] "[37mGET /socios/ HTTP/1.1[0m" 200 -
INFO 127.0.0.1 - - [15/Feb/2021 23:21:03] "[37mGET /categorias/ HTTP/1.1[0m" 200 -
INFO 127.0.0.1 - - [15/Feb/2021 23:21:03] "[33mGET /disciplinas_socio/3 HTTP/1.1[0m" 404 -
INFO 127.0.0.1 - - [15/Feb/2021 23:21:03] "[37mGET /socios/3 HTTP/1.1[0m" 200 -
ERROR Exception on /categoria_socio/3 [GET]
Traceback (most recent call last):
  File "C:\Users\Susa\AppData\Local\Programs\Python\Python39\lib\site-packages\flask\app.py", line 1950, in full_dispatch_request
    rv = self.dispatch_request()
  File "C:\Users\Susa\AppData\Local\Programs\Python\Python39\lib\site-packages\flask\app.py", line 1936, in dispatch_request
    return self.view_functions[rule.endpoint](**req.view_args)
  File "C:\Users\Susa\AppData\Local\Programs\Python\Python39\lib\site-packages\flask_restx\api.py", line 375, in wrapper
    resp = resource(*args, **kwargs)
  File "C:\Users\Susa\AppData\Local\Programs\Python\Python39\lib\site-packages\flask\views.py", line 89, in view
    return self.dispatch_request(*args, **kwargs)
  File "C:\Users\Susa\AppData\Local\Programs\Python\Python39\lib\site-packages\flask_restx\resource.py", line 44, in dispatch_request
    resp = meth(*args, **kwargs)
  File "C:\Users\Susa\AppData\Local\Programs\Python\Python39\lib\site-packages\flask_restx\marshalling.py", line 248, in wrapper
    resp = f(*args, **kwargs)
  File "c:\Users\Susa\Desktop\Nueva carpeta\TP FINAL\backend\api\categoria_socio_api.py", line 35, in get
    return repo.get_catSocio(socio)
  File "c:\Users\Susa\Desktop\Nueva carpeta\TP FINAL\backend\infraestructura\categorias_socios_repo_sql.py", line 14, in get_catSocio
    return db.session.query.from_statement(("select * from categorias_socios where socio =:socio")).params(socio=socio).all()
AttributeError: 'function' object has no attribute 'from_statement'
INFO 127.0.0.1 - - [15/Feb/2021 23:21:03] "[35m[1mGET /categoria_socio/3 HTTP/1.1[0m" 500 -
INFO 127.0.0.1 - - [15/Feb/2021 23:21:15] "[37mGET /profesores/ HTTP/1.1[0m" 200 -
INFO 127.0.0.1 - - [15/Feb/2021 23:21:21] "[37mGET /profesores/ HTTP/1.1[0m" 200 -
INFO 127.0.0.1 - - [15/Feb/2021 23:21:22] "[37mGET /profesores/651156 HTTP/1.1[0m" 200 -
INFO 127.0.0.1 - - [15/Feb/2021 23:21:33] "[37mGET /profesores/ HTTP/1.1[0m" 200 -
INFO 127.0.0.1 - - [15/Feb/2021 23:21:45] "[37mGET /socios/ HTTP/1.1[0m" 200 -
INFO 127.0.0.1 - - [15/Feb/2021 23:22:09] "[33mGET /disciplinas_socio/3 HTTP/1.1[0m" 404 -
INFO 127.0.0.1 - - [15/Feb/2021 23:22:09] "[33mGET /disciplinas_socio/ HTTP/1.1[0m" 404 -
INFO 127.0.0.1 - - [15/Feb/2021 23:23:36] "[37mGET /socios/ HTTP/1.1[0m" 200 -
INFO  * Running on http://127.0.0.1:5000/ (Press CTRL+C to quit)
INFO 127.0.0.1 - - [16/Feb/2021 10:13:39] "[37mGET /socios/ HTTP/1.1[0m" 200 -
INFO 127.0.0.1 - - [16/Feb/2021 10:14:55] "[37mGET /socios/1 HTTP/1.1[0m" 200 -
INFO 127.0.0.1 - - [16/Feb/2021 10:14:55] "[33mGET /disciplinas_socio/1 HTTP/1.1[0m" 404 -
INFO 127.0.0.1 - - [16/Feb/2021 10:14:55] "[37mGET /categorias/ HTTP/1.1[0m" 200 -
ERROR Exception on /categoria_socio/1 [GET]
Traceback (most recent call last):
  File "C:\Users\Susa\AppData\Local\Programs\Python\Python39\lib\site-packages\flask\app.py", line 1950, in full_dispatch_request
    rv = self.dispatch_request()
  File "C:\Users\Susa\AppData\Local\Programs\Python\Python39\lib\site-packages\flask\app.py", line 1936, in dispatch_request
    return self.view_functions[rule.endpoint](**req.view_args)
  File "C:\Users\Susa\AppData\Local\Programs\Python\Python39\lib\site-packages\flask_restx\api.py", line 375, in wrapper
    resp = resource(*args, **kwargs)
  File "C:\Users\Susa\AppData\Local\Programs\Python\Python39\lib\site-packages\flask\views.py", line 89, in view
    return self.dispatch_request(*args, **kwargs)
  File "C:\Users\Susa\AppData\Local\Programs\Python\Python39\lib\site-packages\flask_restx\resource.py", line 44, in dispatch_request
    resp = meth(*args, **kwargs)
  File "C:\Users\Susa\AppData\Local\Programs\Python\Python39\lib\site-packages\flask_restx\marshalling.py", line 248, in wrapper
    resp = f(*args, **kwargs)
  File "c:\Users\Susa\Desktop\Nueva carpeta\TP FINAL\backend\api\categoria_socio_api.py", line 35, in get
    return repo.get_catSocio(socio)
  File "c:\Users\Susa\Desktop\Nueva carpeta\TP FINAL\backend\infraestructura\categorias_socios_repo_sql.py", line 14, in get_catSocio
    return db.session.query.from_statement(("select * from categorias_socios where socio =:socio")).params(socio=socio).all()
AttributeError: 'function' object has no attribute 'from_statement'
INFO 127.0.0.1 - - [16/Feb/2021 10:14:55] "[35m[1mGET /categoria_socio/1 HTTP/1.1[0m" 500 -
INFO  * Running on http://127.0.0.1:5000/ (Press CTRL+C to quit)
INFO 127.0.0.1 - - [16/Feb/2021 10:25:13] "[37mGET /socios/ HTTP/1.1[0m" 200 -
INFO 127.0.0.1 - - [16/Feb/2021 10:25:16] "[33mGET /disciplinas_socio/1 HTTP/1.1[0m" 404 -
INFO 127.0.0.1 - - [16/Feb/2021 10:25:16] "[37mGET /categorias/ HTTP/1.1[0m" 200 -
INFO 127.0.0.1 - - [16/Feb/2021 10:25:16] "[37mGET /socios/1 HTTP/1.1[0m" 200 -
ERROR Exception on /categoria_socio/1 [GET]
Traceback (most recent call last):
  File "C:\Users\Susa\AppData\Local\Programs\Python\Python39\lib\site-packages\flask\app.py", line 1950, in full_dispatch_request
    rv = self.dispatch_request()
  File "C:\Users\Susa\AppData\Local\Programs\Python\Python39\lib\site-packages\flask\app.py", line 1936, in dispatch_request
    return self.view_functions[rule.endpoint](**req.view_args)
  File "C:\Users\Susa\AppData\Local\Programs\Python\Python39\lib\site-packages\flask_restx\api.py", line 375, in wrapper
    resp = resource(*args, **kwargs)
  File "C:\Users\Susa\AppData\Local\Programs\Python\Python39\lib\site-packages\flask\views.py", line 89, in view
    return self.dispatch_request(*args, **kwargs)
  File "C:\Users\Susa\AppData\Local\Programs\Python\Python39\lib\site-packages\flask_restx\resource.py", line 44, in dispatch_request
    resp = meth(*args, **kwargs)
  File "C:\Users\Susa\AppData\Local\Programs\Python\Python39\lib\site-packages\flask_restx\marshalling.py", line 248, in wrapper
    resp = f(*args, **kwargs)
  File "c:\Users\Susa\Desktop\Nueva carpeta\TP FINAL\backend\api\categoria_socio_api.py", line 35, in get
    return repo.get_catSocio(socio)
  File "c:\Users\Susa\Desktop\Nueva carpeta\TP FINAL\backend\infraestructura\categorias_socios_repo_sql.py", line 14, in get_catSocio
    return db.session.query.from_statement(("select * from categorias_socios where socio =:socio")).params(socio=socio).all()
AttributeError: 'function' object has no attribute 'from_statement'
INFO 127.0.0.1 - - [16/Feb/2021 10:25:16] "[35m[1mGET /categoria_socio/1 HTTP/1.1[0m" 500 -
INFO 127.0.0.1 - - [16/Feb/2021 10:25:54] "[37mGET /socios/ HTTP/1.1[0m" 200 -
INFO 127.0.0.1 - - [16/Feb/2021 10:25:55] "[33mGET /disciplinas_socio/ HTTP/1.1[0m" 404 -
INFO 127.0.0.1 - - [16/Feb/2021 10:25:55] "[33mGET /disciplinas_socio/ HTTP/1.1[0m" 404 -
INFO 127.0.0.1 - - [16/Feb/2021 10:45:37] "[37mGET /socios/ HTTP/1.1[0m" 200 -
INFO 127.0.0.1 - - [16/Feb/2021 10:46:11] "[37mGET /socios/ HTTP/1.1[0m" 200 -
INFO 127.0.0.1 - - [16/Feb/2021 10:46:15] "[37mGET /socios/ HTTP/1.1[0m" 200 -
INFO 127.0.0.1 - - [16/Feb/2021 10:46:16] "[37mGET /categorias/ HTTP/1.1[0m" 200 -
INFO 127.0.0.1 - - [16/Feb/2021 10:46:16] "[33mGET /disciplinas_socio/1 HTTP/1.1[0m" 404 -
INFO 127.0.0.1 - - [16/Feb/2021 10:46:16] "[37mGET /socios/1 HTTP/1.1[0m" 200 -
ERROR Exception on /categoria_socio/1 [GET]
Traceback (most recent call last):
  File "C:\Users\Susa\AppData\Local\Programs\Python\Python39\lib\site-packages\flask\app.py", line 1950, in full_dispatch_request
    rv = self.dispatch_request()
  File "C:\Users\Susa\AppData\Local\Programs\Python\Python39\lib\site-packages\flask\app.py", line 1936, in dispatch_request
    return self.view_functions[rule.endpoint](**req.view_args)
  File "C:\Users\Susa\AppData\Local\Programs\Python\Python39\lib\site-packages\flask_restx\api.py", line 375, in wrapper
    resp = resource(*args, **kwargs)
  File "C:\Users\Susa\AppData\Local\Programs\Python\Python39\lib\site-packages\flask\views.py", line 89, in view
    return self.dispatch_request(*args, **kwargs)
  File "C:\Users\Susa\AppData\Local\Programs\Python\Python39\lib\site-packages\flask_restx\resource.py", line 44, in dispatch_request
    resp = meth(*args, **kwargs)
  File "C:\Users\Susa\AppData\Local\Programs\Python\Python39\lib\site-packages\flask_restx\marshalling.py", line 248, in wrapper
    resp = f(*args, **kwargs)
  File "c:\Users\Susa\Desktop\Nueva carpeta\TP FINAL\backend\api\categoria_socio_api.py", line 35, in get
    return repo.get_catSocio(socio)
  File "c:\Users\Susa\Desktop\Nueva carpeta\TP FINAL\backend\infraestructura\categorias_socios_repo_sql.py", line 14, in get_catSocio
    return db.session.query.from_statement(("select * from categorias_socios where socio =:socio")).params(socio=socio).all()
AttributeError: 'function' object has no attribute 'from_statement'
INFO 127.0.0.1 - - [16/Feb/2021 10:46:16] "[35m[1mGET /categoria_socio/1 HTTP/1.1[0m" 500 -
INFO 127.0.0.1 - - [16/Feb/2021 10:46:58] "[37mGET /socios/ HTTP/1.1[0m" 200 -
INFO 127.0.0.1 - - [16/Feb/2021 10:47:04] "[33mGET /disciplinas_socio/1 HTTP/1.1[0m" 404 -
INFO 127.0.0.1 - - [16/Feb/2021 10:47:04] "[33mGET /disciplinas_socio/ HTTP/1.1[0m" 404 -
INFO 127.0.0.1 - - [16/Feb/2021 10:47:22] "[33mOPTIONS /cuotas/1,4 HTTP/1.1[0m" 404 -
INFO 127.0.0.1 - - [16/Feb/2021 10:47:24] "[37mGET /socios/ HTTP/1.1[0m" 200 -
INFO 127.0.0.1 - - [16/Feb/2021 10:47:36] "[37mGET /socios/ HTTP/1.1[0m" 200 -
