INFO 127.0.0.1 - - [16/Feb/2021 11:05:16] "[37mGET /socios/ HTTP/1.1[0m" 200 -
INFO 127.0.0.1 - - [16/Feb/2021 11:05:18] "[37mGET /categorias/ HTTP/1.1[0m" 200 -
INFO 127.0.0.1 - - [16/Feb/2021 11:05:18] "[33mGET /disciplinas_socio/1 HTTP/1.1[0m" 404 -
INFO 127.0.0.1 - - [16/Feb/2021 11:05:18] "[37mGET /socios/1 HTTP/1.1[0m" 200 -
ERROR Exception on /categoria_socio/1 [GET]
Traceback (most recent call last):
  File "C:\Users\Susa\AppData\Local\Programs\Python\Python39\lib\site-packages\flask\app.py", line 1950, in full_dispatch_request
    rv = self.dispatch_request()
  File "C:\Users\Susa\AppData\Local\Programs\Python\Python39\lib\site-packages\flask\app.py", line 1936, in dispatch_request
    return self.view_functions[rule.endpoint](**req.view_args)
  File "C:\Users\Susa\AppData\Local\Programs\Python\Python39\lib\site-packages\flask_restx\api.py", line 375, in wrapper
    resp = resource(*args, **kwargs)
  File "C:\Users\Susa\AppData\Local\Programs\Python\Python39\lib\site-packages\flask\views.py", line 89, in view
    return self.dispatch_request(*args, **kwargs)
  File "C:\Users\Susa\AppData\Local\Programs\Python\Python39\lib\site-packages\flask_restx\resource.py", line 44, in dispatch_request
    resp = meth(*args, **kwargs)
  File "C:\Users\Susa\AppData\Local\Programs\Python\Python39\lib\site-packages\flask_restx\marshalling.py", line 248, in wrapper
    resp = f(*args, **kwargs)
  File "c:\Users\Susa\Desktop\Nueva carpeta\TP FINAL\backend\api\categoria_socio_api.py", line 35, in get
    return repo.get_catSocio(socio)
  File "c:\Users\Susa\Desktop\Nueva carpeta\TP FINAL\backend\infraestructura\categorias_socios_repo_sql.py", line 14, in get_catSocio
    return db.session.query().from_statement(("select * from categorias_socios where socio =:socio")).params(socio=socio).all()
AttributeError: 'function' object has no attribute 'from_statement'
INFO 127.0.0.1 - - [16/Feb/2021 11:05:18] "[35m[1mGET /categoria_socio/1 HTTP/1.1[0m" 500 -
INFO  * Running on http://127.0.0.1:5000/ (Press CTRL+C to quit)
INFO 127.0.0.1 - - [16/Feb/2021 11:06:31] "[37mGET /socios/ HTTP/1.1[0m" 200 -
INFO 127.0.0.1 - - [16/Feb/2021 11:06:36] "[33mGET /disciplinas_socio/1 HTTP/1.1[0m" 404 -
INFO 127.0.0.1 - - [16/Feb/2021 11:06:36] "[37mGET /categorias/ HTTP/1.1[0m" 200 -
INFO 127.0.0.1 - - [16/Feb/2021 11:06:36] "[37mGET /socios/1 HTTP/1.1[0m" 200 -
ERROR Exception on /categoria_socio/1 [GET]
Traceback (most recent call last):
  File "C:\Users\Susa\AppData\Local\Programs\Python\Python39\lib\site-packages\flask\app.py", line 1950, in full_dispatch_request
    rv = self.dispatch_request()
  File "C:\Users\Susa\AppData\Local\Programs\Python\Python39\lib\site-packages\flask\app.py", line 1936, in dispatch_request
    return self.view_functions[rule.endpoint](**req.view_args)
  File "C:\Users\Susa\AppData\Local\Programs\Python\Python39\lib\site-packages\flask_restx\api.py", line 375, in wrapper
    resp = resource(*args, **kwargs)
  File "C:\Users\Susa\AppData\Local\Programs\Python\Python39\lib\site-packages\flask\views.py", line 89, in view
    return self.dispatch_request(*args, **kwargs)
  File "C:\Users\Susa\AppData\Local\Programs\Python\Python39\lib\site-packages\flask_restx\resource.py", line 44, in dispatch_request
    resp = meth(*args, **kwargs)
  File "C:\Users\Susa\AppData\Local\Programs\Python\Python39\lib\site-packages\flask_restx\marshalling.py", line 248, in wrapper
    resp = f(*args, **kwargs)
  File "c:\Users\Susa\Desktop\Nueva carpeta\TP FINAL\backend\api\categoria_socio_api.py", line 35, in get
    return repo.get_catSocio(socio)
  File "c:\Users\Susa\Desktop\Nueva carpeta\TP FINAL\backend\infraestructura\categorias_socios_repo_sql.py", line 14, in get_catSocio
    return db.session.query().from_statement(("select * from categorias_socios where socio =:socio")).params(socio=socio).all()
  File "<string>", line 2, in from_statement
  File "C:\Users\Susa\AppData\Local\Programs\Python\Python39\lib\site-packages\sqlalchemy\orm\base.py", line 227, in generate
    fn(self, *args[1:], **kw)
  File "C:\Users\Susa\AppData\Local\Programs\Python\Python39\lib\site-packages\sqlalchemy\orm\query.py", line 3394, in from_statement
    statement = expression._expression_literal_as_text(statement)
  File "C:\Users\Susa\AppData\Local\Programs\Python\Python39\lib\site-packages\sqlalchemy\sql\elements.py", line 4707, in _expression_literal_as_text
    return _literal_as_text(element)
  File "C:\Users\Susa\AppData\Local\Programs\Python\Python39\lib\site-packages\sqlalchemy\sql\elements.py", line 4730, in _literal_as_text
    return _literal_as(element, _no_text_coercion)
  File "C:\Users\Susa\AppData\Local\Programs\Python\Python39\lib\site-packages\sqlalchemy\sql\elements.py", line 4716, in _literal_as
    return text_fallback(element)
  File "C:\Users\Susa\AppData\Local\Programs\Python\Python39\lib\site-packages\sqlalchemy\sql\elements.py", line 4757, in _no_text_coercion
    util.raise_(
  File "C:\Users\Susa\AppData\Local\Programs\Python\Python39\lib\site-packages\sqlalchemy\util\compat.py", line 182, in raise_
    raise exception
sqlalchemy.exc.ArgumentError: Textual SQL expression 'select * from categorias_...' should be explicitly declared as text('select * from categorias_...')
INFO 127.0.0.1 - - [16/Feb/2021 11:06:36] "[35m[1mGET /categoria_socio/1 HTTP/1.1[0m" 500 -
INFO  * Running on http://127.0.0.1:5000/ (Press CTRL+C to quit)
INFO 127.0.0.1 - - [16/Feb/2021 11:10:16] "[37mGET /socios/ HTTP/1.1[0m" 200 -
INFO 127.0.0.1 - - [16/Feb/2021 11:10:17] "[33mGET /disciplinas_socio/1 HTTP/1.1[0m" 404 -
INFO 127.0.0.1 - - [16/Feb/2021 11:10:17] "[37mGET /categorias/ HTTP/1.1[0m" 200 -
INFO 127.0.0.1 - - [16/Feb/2021 11:10:17] "[37mGET /socios/1 HTTP/1.1[0m" 200 -
ERROR Exception on /categoria_socio/1 [GET]
Traceback (most recent call last):
  File "C:\Users\Susa\AppData\Local\Programs\Python\Python39\lib\site-packages\flask\app.py", line 1950, in full_dispatch_request
    rv = self.dispatch_request()
  File "C:\Users\Susa\AppData\Local\Programs\Python\Python39\lib\site-packages\flask\app.py", line 1936, in dispatch_request
    return self.view_functions[rule.endpoint](**req.view_args)
  File "C:\Users\Susa\AppData\Local\Programs\Python\Python39\lib\site-packages\flask_restx\api.py", line 375, in wrapper
    resp = resource(*args, **kwargs)
  File "C:\Users\Susa\AppData\Local\Programs\Python\Python39\lib\site-packages\flask\views.py", line 89, in view
    return self.dispatch_request(*args, **kwargs)
  File "C:\Users\Susa\AppData\Local\Programs\Python\Python39\lib\site-packages\flask_restx\resource.py", line 44, in dispatch_request
    resp = meth(*args, **kwargs)
  File "C:\Users\Susa\AppData\Local\Programs\Python\Python39\lib\site-packages\flask_restx\marshalling.py", line 248, in wrapper
    resp = f(*args, **kwargs)
  File "c:\Users\Susa\Desktop\Nueva carpeta\TP FINAL\backend\api\categoria_socio_api.py", line 35, in get
    return repo.get_catSocio(socio)
  File "c:\Users\Susa\Desktop\Nueva carpeta\TP FINAL\backend\infraestructura\categorias_socios_repo_sql.py", line 14, in get_catSocio
    return db.session.query().from_statement(text(("select * from categorias_socios where socio =:socio"))).params(socio=socio).all()
NameError: name 'text' is not defined
INFO 127.0.0.1 - - [16/Feb/2021 11:10:17] "[35m[1mGET /categoria_socio/1 HTTP/1.1[0m" 500 -
INFO  * Running on http://127.0.0.1:5000/ (Press CTRL+C to quit)
INFO 127.0.0.1 - - [16/Feb/2021 11:12:13] "[37mGET /socios/ HTTP/1.1[0m" 200 -
INFO 127.0.0.1 - - [16/Feb/2021 11:12:14] "[33mGET /disciplinas_socio/1 HTTP/1.1[0m" 404 -
INFO 127.0.0.1 - - [16/Feb/2021 11:12:14] "[37mGET /categorias/ HTTP/1.1[0m" 200 -
INFO 127.0.0.1 - - [16/Feb/2021 11:12:14] "[37mGET /socios/1 HTTP/1.1[0m" 200 -
ERROR Exception on /categoria_socio/1 [GET]
Traceback (most recent call last):
  File "C:\Users\Susa\AppData\Local\Programs\Python\Python39\lib\site-packages\flask\app.py", line 1950, in full_dispatch_request
    rv = self.dispatch_request()
  File "C:\Users\Susa\AppData\Local\Programs\Python\Python39\lib\site-packages\flask\app.py", line 1936, in dispatch_request
    return self.view_functions[rule.endpoint](**req.view_args)
  File "C:\Users\Susa\AppData\Local\Programs\Python\Python39\lib\site-packages\flask_restx\api.py", line 375, in wrapper
    resp = resource(*args, **kwargs)
  File "C:\Users\Susa\AppData\Local\Programs\Python\Python39\lib\site-packages\flask\views.py", line 89, in view
    return self.dispatch_request(*args, **kwargs)
  File "C:\Users\Susa\AppData\Local\Programs\Python\Python39\lib\site-packages\flask_restx\resource.py", line 44, in dispatch_request
    resp = meth(*args, **kwargs)
  File "C:\Users\Susa\AppData\Local\Programs\Python\Python39\lib\site-packages\flask_restx\marshalling.py", line 248, in wrapper
    resp = f(*args, **kwargs)
  File "c:\Users\Susa\Desktop\Nueva carpeta\TP FINAL\backend\api\categoria_socio_api.py", line 35, in get
    return repo.get_catSocio(socio)
  File "c:\Users\Susa\Desktop\Nueva carpeta\TP FINAL\backend\infraestructura\categorias_socios_repo_sql.py", line 14, in get_catSocio
    return db.session.query().from_statement(text("select * from categorias_socios where socio =:socio")).params(socio=socio).all()
NameError: name 'text' is not defined
INFO 127.0.0.1 - - [16/Feb/2021 11:12:14] "[35m[1mGET /categoria_socio/1 HTTP/1.1[0m" 500 -
INFO  * Running on http://127.0.0.1:5000/ (Press CTRL+C to quit)
INFO 127.0.0.1 - - [16/Feb/2021 11:14:27] "[37mGET /socios/ HTTP/1.1[0m" 200 -
INFO 127.0.0.1 - - [16/Feb/2021 11:14:28] "[33mGET /disciplinas_socio/1 HTTP/1.1[0m" 404 -
INFO 127.0.0.1 - - [16/Feb/2021 11:14:28] "[37mGET /categorias/ HTTP/1.1[0m" 200 -
INFO 127.0.0.1 - - [16/Feb/2021 11:14:28] "[37mGET /socios/1 HTTP/1.1[0m" 200 -
